solid AssimpScene
 facet normal -1 0 0
  outer loop
  vertex 0 20 20
  vertex 0 20 0
  vertex 0 0 20
  endloop
 endfacet

 facet normal -1 0 0
  outer loop
  vertex 0 20 0
  vertex 0 0 0
  vertex 0 0 20
  endloop
 endfacet

 facet normal 0 -1 0
  outer loop
  vertex 0 0 0
  vertex 20 0 0
  vertex 20 0 20
  endloop
 endfacet

 facet normal 0 -1 0
  outer loop
  vertex 0 0 20
  vertex 0 0 0
  vertex 20 0 20
  endloop
 endfacet

 facet normal 0 0 1
  outer loop
  vertex 20 20 20
  vertex 0 20 20
  vertex 0 0 20
  endloop
 endfacet

 facet normal 0 0 1
  outer loop
  vertex 20 20 20
  vertex 0 0 20
  vertex 20 0 20
  endloop
 endfacet

 facet normal 0 1 0
  outer loop
  vertex 20 20 20
  vertex 20 20 0
  vertex 0 20 0
  endloop
 endfacet

 facet normal 0 1 0
  outer loop
  vertex 20 20 20
  vertex 0 20 0
  vertex 0 20 20
  endloop
 endfacet

 facet normal 0 0 -1
  outer loop
  vertex 0 0 0
  vertex 0 20 0
  vertex 20 20 0
  endloop
 endfacet

 facet normal 0 0 -1
  outer loop
  vertex 20 0 0
  vertex 0 0 0
  vertex 20 20 0
  endloop
 endfacet

 facet normal 1 0 0
  outer loop
  vertex 20 0 20
  vertex 20 20 0
  vertex 20 20 20
  endloop
 endfacet

 facet normal 1 0 0
  outer loop
  vertex 20 0 20
  vertex 20 0 0
  vertex 20 20 0
  endloop
 endfacet

 facet normal 1 0 0
  outer loop
  vertex 1 1 19
  vertex 1 19 1
  vertex 1 19 19
  endloop
 endfacet

 facet normal 1 0 0
  outer loop
  vertex 1 1 19
  vertex 1 1 1
  vertex 1 19 1
  endloop
 endfacet

 facet normal 0 1 0
  outer loop
  vertex 19 1 19
  vertex 19 1 1
  vertex 1 1 1
  endloop
 endfacet

 facet normal 0 1 0
  outer loop
  vertex 19 1 19
  vertex 1 1 1
  vertex 1 1 19
  endloop
 endfacet

 facet normal 0 0 -1
  outer loop
  vertex 1 1 19
  vertex 1 19 19
  vertex 19 19 19
  endloop
 endfacet

 facet normal 0 0 -1
  outer loop
  vertex 19 1 19
  vertex 1 1 19
  vertex 19 19 19
  endloop
 endfacet

 facet normal 0 -1 0
  outer loop
  vertex 1 19 1
  vertex 19 19 1
  vertex 19 19 19
  endloop
 endfacet

 facet normal 0 -1 0
  outer loop
  vertex 1 19 19
  vertex 1 19 1
  vertex 19 19 19
  endloop
 endfacet

 facet normal 0 0 1
  outer loop
  vertex 19 19 1
  vertex 1 19 1
  vertex 1 1 1
  endloop
 endfacet

 facet normal 0 0 1
  outer loop
  vertex 19 19 1
  vertex 1 1 1
  vertex 19 1 1
  endloop
 endfacet

 facet normal -1 0 0
  outer loop
  vertex 19 19 19
  vertex 19 19 1
  vertex 19 1 19
  endloop
 endfacet

 facet normal -1 0 0
  outer loop
  vertex 19 19 1
  vertex 19 1 1
  vertex 19 1 19
  endloop
 endfacet

endsolid AssimpScene
